%YAML 1.1
%TAG !u! tag:unity3d.com,2011:
--- !u!114 &11400000
MonoBehaviour:
  m_ObjectHideFlags: 0
  m_CorrespondingSourceObject: {fileID: 0}
  m_PrefabInstance: {fileID: 0}
  m_PrefabAsset: {fileID: 0}
  m_GameObject: {fileID: 0}
  m_Enabled: 1
  m_EditorHideFlags: 0
  m_Script: {fileID: 11500000, guid: ac5da6f1668e72345a9b0113c9a34c92, type: 3}
  m_Name: Doctor
  m_EditorClassIdentifier: 
  name: Doctor
  dialogue:
  - Hello, How are you?
  - Tell me about yourself?
  - Nice Talking to you!
  - Please come again!
  playerDialogue:
  - I am fine, Thanks!
  - I am an Engineer...
  - GoodBye!
